TSL,Neutron,Mtref,Natoms,Temperature,Geant4Name,Geant4FullName
tsl-Al27inAl2O3.jeff33,13-Al-27g.jeff33,248,2,293,al_al2o3_singlecrystal,TS_Al_of_Sapphir_SingleCrystal
tsl-CainCaH2.jeff33,20-Ca-40g.jeff33,248,1,296. 400. 500. 600. 700. 800. 1000. 1200.,ca_cah2,TS_Ca_of_CaH2
tsl-DinOrthoD.jeff33,1-H-2g.jeff33,228,2,19 20 21 22 23,d_ortho_d2,TS_D_of_Ortho_Deuterium
tsl-DinD2O.jeff33,1-H-2g.jeff33,248,2,283.6 293.6 300.0 323.6 350.0 373.6 400.0  423.6 450.0 473.6 500.0 523.6 550.0 573.6 600.0  623.6,d_heavy_water,TS_D_of_Heavy_Water
tsl-HinCH2.jeff33,1-H-1g.jeff33,223,2,293.6  350 ,h_polyethylene,TS_H_of_Polyethylene
tsl-HinCaH2.jeff33,1-H-1g.jeff33,248,2,296. 400. 500. 600. 700. 800. 1000. 1200.,h_cah2,TS_H_of_CaH2
tsl-Graphite.jeff33,6-C-0g.jeff33,229,1,293.6 400 500 600 700 800 1000 1200 1600 2000 3000,graphite,TS_C_of_Graphite
tsl-DinParaD.jeff33,1-H-2g.jeff33,248,2,19 20 21 22 23,d_para_d2,TS_D_of_Para_Deuterium
tsl-HinMesitylene-PhaseII.jeff33,1-H-1g.jeff33,248,12,20   120,h_mesitylene_phaseII,TS_H_of_Mesitylene_phaseII
tsl-HinIce.jeff33,1-H-1g.jeff33,248,2,77   115   233    243    253    263   273,h_ice,TS_H_of_Ice
tsl-HinH2O.jeff33,1-H-1g.jeff33,248,2,293.6  323.6  373.6  423.6  473.6 523.6 573.6  623.6  647.2  800  ,h_water,TS_H_of_Water
tsl-HinOrthoH.jeff33,1-H-1g.jeff33,248,2,14 15 16 17 18 19 20,h_ortho_h2,TS_H_of_Ortho_Hydrogen
tsl-O16inAl2O3.jeff33,8-O-16g.jeff33,248,3,293,o_al2o3_singlecrystal,TS_O_of_Sapphir_SingleCrystal
tsl-HinZrH.jeff33,1-H-1g.jeff33,225,1,293.6 400 500 600 700 800 1000 1200,h_zrh,TS_H_of_Zirconium_Hydride
tsl-HinToluene.jeff33,1-H-1g.jeff33,248,8,20   120,h_toluene,TS_H_of_Toluene
tsl-HinParaH.jeff33,1-H-1g.jeff33,248,2,14 15 16 17 18 19 20,h_para_h2,TS_H_of_Para_Hydrogen
tsl-OinD2O.jeff33,8-O-16g.jeff33,248,1,283.6 293.6 300.0 323.6 350.0 373.6 400.0  423.6 450.0 473.6 500.0 523.6 550.0 573.6 600.0  623.6,o_heavy_water,TS_O_of_Heavy_Water
tsl-Silicon.jeff33,14-Si-30g.jeff33,248,1,296,si30_sio2_singlecrystal,TS_Si30_of_SiO2_SingleCrystal
tsl-Silicon.jeff33,14-Si-29g.jeff33,248,1,296,si29_sio2_singlecrystal,TS_Si29_of_SiO2_SingleCrystal
tsl-Silicon.jeff33,14-Si-28g.jeff33,248,1,296,si28_sio2_singlecrystal,TS_Si28_of_SiO2_SingleCrystal
tsl-Mg.jeff33,12-Mg-26g.jeff33,248,1,20 100  296 773,mg26_magnesium,TS_Mg26_of_Magnesium_Metal
tsl-Mg.jeff33,12-Mg-25g.jeff33,248,1,20 100  296 773,mg25_magnesium,TS_Mg25_of_Magnesium_Metal
tsl-Mg.jeff33,12-Mg-24g.jeff33,248,1,20 100  296 773,mg24_magnesium,TS_Mg24_of_Magnesium_Metal
tsl-Be.jeff33,4-Be-9g.jeff33,248,1,293.6 400 500 600 700 800 1000 1200,be_metal,TS_Beryllium_Metal
