TSL,Neutrons,Mtref,Natoms,Temperature,Geant4Name
tsl-OinUO2.endf,n-008_O_016.endf,239,1,296 400 500 600 700 800 1000 1200,o_uo2
tsl-OinD2O.endf,n-008_O_016.endf,248,1,283.6   293.6   300.0    323.6   350.0   373.6   400.0    423.6   450.0   473.6   500.0   523.6   550.0   573.6   600.0   623.6,o_heavy_water
tsl-OinBeO.endf,n-008_O_016.endf,237,1,293.6 400 500 600 700 800 1000 1200,o_beo
tsl-NinUN.endf,n-007_N_014.endf,248,1,296 400 500 600 700 800 1000 1200,n_un
tsl-HinZrH.endf,n-001_H_001.endf,225,1,296 400 500 600 700 800 1000 1200,h_zrh
tsl-HinYH2.endf,n-001_H_001.endf,248,2,293.6 400 500 600 700 800 1000 1200 1400 1600    ,h_yh2
tsl-HinH2O.endf,n-001_H_001.endf,222,2,283.6   293.6   300.0   323.6   350.0   373.6   400.0   423.6   450.0   473.6   500.0   523.6   550.0   573.6   600.0   623.6,h_water
tsl-HinCH2.endf,n-001_H_001.endf,223,2,77 196 233 293.6 300 303 313 323 333 343 350,h_polyethylene
tsl-HinC5O2H8.endf,n-001_H_001.endf,248,8,300,h_c5o2h8
tsl-DinD2O.endf,n-001_H_002.endf,228,2,283.6   293.6   300.0   323.6   350.0   373.6   400.0    423.6   450.0   473.6   500.0   523.6   550.0   573.6   600.0   623.6,d_heavy_water
tsl-crystalline-graphite.endf,n-006_C_012.endf,229,1,296 400 500 600 700 800 1000 1200 1600 2000,graphite
tsl-CinSiC.endf,n-006_C_012.endf,222,1,300   400   500   600   700   800   1000   1200,c_sic
tsl-reactor-graphite-30P.endf,n-006_C_012.endf,248,1,296 400 500 600 700 800 1000 1200 1600 2000,graphite_30p
tsl-reactor-graphite-10P.endf,n-006_C_012.endf,248,1,296 400 500 600 700 800 1000 1200 1600 2000,graphite_10p
tsl-benzene.endf,n-001_H_001.endf,227,6,296 350 400 450 500 600 800 1000,h_benzen
tsl-BeinBeO.endf,n-004_Be_009.endf,233,1,293.6 400 500 600 700 800 1000 1200,be_beo
tsl-ZrinZrH.endf,,235,1,296 400 500 600 700 800 1000 1200,zr_zrh
tsl-YinYH2.endf,,248,1,293.6 400 500 600 700 800 1000 1200 1400 1600,y_yh2
tsl-UinUO2.endf,,241,1,296 400 500 600 700 800 1000 1200,u_uo2
tsl-UinUN.endf,,248,1,296 400 500 600 700 800 1000 1200,u_un
tsl-SiO2-beta.endf,,248,1,1000 1100,sio2_beta
tsl-SiO2-alpha.endf,,248,1,293.6 350 400 500 800,sio2_alpha
tsl-SiinSiC.endf,,248,1,300   400   500   600   700   800   1000   1200,si_sic
tsl-HinIceIh.endf,n-001_H_001.endf,248,2,115.00  188.15  208.15  228.15  233.15  248.15 253.15  268.15  273.15 ,h_iceh
tsl-OinIceIh.endf,n-008_O_016.endf,248,1,115.00  188.15  208.15  228.15  233.15  248.15   253.15  268.15  273.15 ,o_iceh
tsl-DinOrthoD.jeff33,n-001_H_002.endf,228,2,19 20 21 22 23,d_ortho_d2
tsl-DinParaD.jeff33,n-001_H_002.endf,248,2,19 20 21 22 23,d_para_d2
tsl-HinParaH.jeff33,n-001_H_001.endf,248,2,14 15 16 17 18 19 20,h_para_h2
tsl-HinOrthoH.jeff33,n-001_H_001.endf,248,2,14 15 16 17 18 19 20,h_para_h2
tsl-HinToluene.jeff33,n-001_H_001.endf,248,8,20   120,h_toluene
tsl-HinMesitylene-PhaseII.jeff33,n-001_H_001.endf,248,12,20   120,h_mesitylene_phaseII
tsl-s-CH4.endf,n-001_H_001.endf,248,4,22,h_s_ch4
tsl-l-CH4.endf,n-001_H_001.endf,248,4,100,h_l_ch4
tsl-013_Al_027.endf,n-013_Al_027.endf,243,1,20   80   293.6   400   600   800,al_metal
tsl-026_Fe_056.endf,n-026_Fe_056.endf,245,1,20   80   293.6   400 600   800,fe_metal
tsl-Be-metal.endf,n-004_Be_009.endf,231,1,296 400 500 600 700 800 1000 1200,be_metal
